{
  "meta": {
    "limit": 20,
    "next": "/v1/issue/?limit=20&order_by=-last_modified_time&offset=20",
    "offset": 0,
    "previous": null,
    "total_count": 40
  },
  "objects": [
    {
      "id": 1,
      "name": "Test name"
    }
  ]
}
